{
	"info": {
		"_postman_id": "bff2c38e-a0be-4595-83e9-501c21f5d3b0",
		"name": "Runchise",
		"schema": "https://schema.getpostman.com/json/collection/v2.1.0/collection.json",
		"_exporter_id": "7174743"
	},
	"item": [
		{
			"name": "Get All",
			"request": {
				"method": "GET",
				"header": [],
				"url": {
					"raw": "{{base_url}}/restaurants?name=z&email=&phone=&address=2",
					"host": [
						"{{base_url}}"
					],
					"path": [
						"restaurants"
					],
					"query": [
						{
							"key": "name",
							"value": "z"
						},
						{
							"key": "email",
							"value": ""
						},
						{
							"key": "phone",
							"value": ""
						},
						{
							"key": "address",
							"value": "2"
						}
					]
				}
			},
			"response": []
		},
		{
			"name": "Get Restaurant",
			"request": {
				"method": "GET",
				"header": [],
				"url": {
					"raw": "{{base_url}}/restaurants/100",
					"host": [
						"{{base_url}}"
					],
					"path": [
						"restaurants",
						"100"
					]
				}
			},
			"response": []
		},
		{
			"name": "Create",
			"request": {
				"method": "POST",
				"header": [],
				"body": {
					"mode": "raw",
					"raw": "{\n    \"name\":\"Warung Bensu\",\n    \"email\":\"warungbensu@mail.com\",\n    \"address\":\"Jakarta\",\n    \"phoneNumber\":\"+08128888123\"\n}",
					"options": {
						"raw": {
							"language": "json"
						}
					}
				},
				"url": {
					"raw": "{{base_url}}/restaurants/create",
					"host": [
						"{{base_url}}"
					],
					"path": [
						"restaurants",
						"create"
					]
				}
			},
			"response": []
		},
		{
			"name": "Update",
			"request": {
				"method": "PUT",
				"header": [],
				"body": {
					"mode": "raw",
					"raw": "{\n    \"name\":\"Warung Bensu\",\n    \"email\":\"warungbensu@mail.com\",\n    \"address\":\"Jakarta Timur\",\n    \"phoneNumber\":\"08128888123\"\n}",
					"options": {
						"raw": {
							"language": "json"
						}
					}
				},
				"url": {
					"raw": "{{base_url}}/restaurants/update/1",
					"host": [
						"{{base_url}}"
					],
					"path": [
						"restaurants",
						"update",
						"1"
					]
				}
			},
			"response": []
		},
		{
			"name": "Delete",
			"request": {
				"method": "DELETE",
				"header": [],
				"url": {
					"raw": "{{base_url}}/restaurants/delete/1",
					"host": [
						"{{base_url}}"
					],
					"path": [
						"restaurants",
						"delete",
						"1"
					]
				}
			},
			"response": []
		}
	],
	"event": [
		{
			"listen": "prerequest",
			"script": {
				"type": "text/javascript",
				"exec": [
					""
				]
			}
		},
		{
			"listen": "test",
			"script": {
				"type": "text/javascript",
				"exec": [
					""
				]
			}
		}
	],
	"variable": [
		{
			"key": "base_url",
			"value": "http://localhost:8080"
		}
	]
}